<?xml version="1.0" encoding="UTF-8"?>
<svg width="57.384" height="54.233" version="1.1" viewBox="0 0 15.183 14.349" xmlns="http://www.w3.org/2000/svg" xmlns:cc="http://creativecommons.org/ns#" xmlns:dc="http://purl.org/dc/elements/1.1/" xmlns:rdf="http://www.w3.org/1999/02/22-rdf-syntax-ns#">
 <metadata>
  <rdf:RDF>
   <cc:Work rdf:about="">
    <dc:format>image/svg+xml</dc:format>
    <dc:type rdf:resource="http://purl.org/dc/dcmitype/StillImage"/>
    <dc:title/>
   </cc:Work>
  </rdf:RDF>
 </metadata>
 <g transform="translate(-170.05 -118.18)">
  <g transform="translate(7.9375 12.7)">
   <path d="m177.24 112.67c0.56115 4.2465-3.5482 7.3532-8.4956 7.1446-4.3593-0.18384-6.9547-3.1794-6.6045-7.1096 0.35705-4.007 2.8301-7.4889 7.1998-7.2146 4.3592 0.27358 7.3065 2.6866 7.9002 7.1796z" fill="#1a1a1a"/>
   <path d="m167.84 107.78v9.9829l4.878-5.1758z" fill="#fff"/>
  </g>
 </g>
</svg>
