<svg width="124.17" height="215.64" version="1.1" viewBox="0 0 32.853 57.055" xmlns="http://www.w3.org/2000/svg">
 <g transform="translate(511.15 85.275)">
  <path d="m-489.43-85.275c0.29325-0.01 0.58786 0.085 0.88398 0.2775 0.82925 0.5379 0.87502 1.9077 0.1831 5.4799-1.7225 8.8932-1.6999 9.5824 0.6944 20.978l2.0394 9.7043 0.90542 0.5128c0.49796 0.282 1.7069 1.081 2.6868 1.7755 1.8011 1.2765 2.0276 1.3607 1.3444 0.5028-0.51934-0.6522-1.4455-2.1728-2.3581-3.8727-1.0899-2.0294-3.3662-10.335-3.3633-12.272 8.4e-4 -0.8434-0.24907-2.7116-0.55573-4.1509-0.65523-3.0766-0.31741-5.2152 0.94334-5.9804 1.2475-0.7569 2.3219-0.2195 3.7145 1.8576 1.3435 2.0036 1.8196 3.68 1.9974 7.028 0.0608 1.1459 0.16275 3.0036 0.22596 4.1286 0.1612 2.8655 0.11895 6.0616-0.12071 9.1561-0.18104 2.3323-0.12405 2.8286 0.47692 4.1979 0.36412 0.8294 0.6401 1.2849 1.4347 1.9211v1.2622c-0.46571-0.1613-0.92761-0.3041-1.343-0.3972-2.689-0.6017-4.6824-0.826-8.3205-0.9362-7.8987-0.2395-14.454-2.0697-14.899-4.1601-0.3417-1.6039 2.4699-1.7885 7.2994-0.4789 5.3999 1.4645 8.5894 2.4604 9.5966 2.9971 1.2683 0.6758 6.4931 2.0871 6.2468 1.6872-0.095-0.1541-1.6952-1.3637-3.5559-2.6869-1.8608-1.3233-3.8303-2.841-4.3765-3.3727-1.1237-1.0942-1.408-1.1335-5.7374-0.7968-2.5458 0.1981-3.6308 0.1092-5.8347-0.4783-4.3498-1.1596-7.2213-2.649-9.0922-4.7158-1.918-2.1189-2.2996-2.7539-2.0558-3.4207 0.15225-0.4164 0.6769-0.3851 3.1373 0.1871 1.6252 0.378 3.4799 0.7973 4.1216 0.9318 2.0808 0.4364 5.9067 1.6484 8.2088 2.6006 1.2365 0.5114 2.684 1.0893 3.2166 1.2841l0.96879 0.3541-0.50434-0.612c-0.87209-1.0593-4.0765-3.9382-5.5189-4.9582-0.76143-0.5385-2.0681-1.55-2.9034-2.2478-2.7952-2.3355-8.5388-10.403-9.7238-13.657-0.39529-1.0736-0.82253-2.1455-0.95281-2.3806-0.13019-0.2352-0.41935-1.1616-0.64253-2.0588-0.46313-1.8607-0.10598-2.5657 1.4806-2.8949 2.0725-0.4367 4.5045 1.3571 6.3675 4.6968 0.7433 1.333 1.5547 3.0232 1.8024 3.7564 0.24771 0.7332 0.67638 2.0013 0.95332 2.8181 0.27636 0.8169 0.8192 2.0626 1.2058 2.7686 0.3864 0.7059 0.97834 2.1413 1.3155 3.1892 0.72562 2.2566 3.5752 6.6191 6.2627 9.5876 1.0846 1.198 1.7959 2.2268 1.7081 2.472-0.0718 0.3528 0.30292 0.1877 0.45047 0.6984 0.24753 0.382 1.2e-4 0.3253-0.86351-0.1976-1.3782-0.8347-5.3775-2.4755-5.8067-2.3896-0.15629 0.033-0.51738-0.1239-0.80267-0.3492-0.43386-0.3423-12.468-3.5069-12.948-3.4098-0.37473 0.08 0.10636 0.9459 1.306 2.3522 1.766 2.0703 4.5062 3.5757 8.5964 4.7222 2.9408 0.824 3.8687 0.9353 6.3395 0.7583 1.592-0.1138 2.9222-0.2419 2.9568-0.2853 0.0345-0.042-1.6469-0.536-3.7365-1.0955-3.8786-1.039-8.0905-2.5746-8.1923-2.9867-0.0311-0.1262 0.84585 0.1374 1.9486 0.5857 2.8182 1.1456 11.898 3.4186 12.58 3.1458 0.10443-0.041 0.17862 0.1811 0.16414 0.4948-0.0145 0.3136 0.2884 0.8253 0.67294 1.1369 0.68616 0.5554 0.68579 0.5185 5e-3 -1.9465-0.64697-2.3412-0.81446-2.6325-2.4494-4.2599-2.1682-2.1582-3.006-4.3131-4.143-10.658-0.90645-5.0579-0.75871-7.8172 0.65401-12.242 1.1928-3.7353 2.4347-5.6295 3.7055-5.6591zm-0.41406 0.3746c-0.51778-0.049-2.2128 3.4844-2.8749 6.0423-1.1638 4.4948-1.2026 6.9234-0.19657 12.253 1.0883 5.7679 1.9966 8.0506 3.7819 9.5061 0.70202 0.5724 1.3403 1.0267 1.4178 1.0104 0.13371-0.028-0.0385-0.5055-1.4248-3.996-1.3242-3.3282-2.5614-11.183-2.2968-14.58 0.38994-5.0069 0.56629-6.2123 1.1793-8.074 0.36492-1.1079 0.57159-2.0733 0.46046-2.1456-0.0143-0.01-0.0298-0.014-0.0464-0.016zm1.0352 0.4022c-0.0344-0.01-0.0713 0-0.11126 0-0.35238 0.075-1.0788 2.6755-1.4592 5.224-0.66678 4.4674-0.65954 7.4482 0.029 11.561h5e-4c0.37452 2.2412 0.74883 4.0612 0.8311 4.0428 0.0824-0.018-0.0666-1.4546-0.33125-3.1937-0.5623-3.6964-0.48158-5.0811 0.67247-11.505 0.77429-4.3085 0.88458-6.0423 0.36867-6.1329zm-19.874 2.0658c-0.0323 0-0.0541 0.013-0.0654 0.029-0.09 0.1385 0.1178 0.4547 0.46146 0.7029 0.34374 0.2483 0.68307 0.7272 0.75527 1.0641 0.0718 0.3371 0.48526 1.2413 0.9184 2.0088 0.43324 0.7678 1.4247 2.6932 2.2034 4.2789 0.7789 1.5858 1.7719 3.5238 2.207 4.3071 0.43495 0.7831 1.0392 1.8722 1.3419 2.4209 0.30289 0.5486 0.95326 1.413 1.4457 1.9212 0.49238 0.5082 1.0405 1.2517 1.2182 1.6517 0.17764 0.4001 0.48821 0.9663 0.69042 1.2586 0.24875 0.3601 0.24549 0.4874-0.0105 0.3957-0.20801-0.075-0.64932-0.6127-0.97978-1.1968-0.33059-0.5842-1.0219-1.4873-1.5365-2.0071-0.87231-0.881-4.0575-5.9551-4.7522-7.5691-0.1695-0.395-0.50281-1.1786-0.74031-1.741-0.23749-0.5624-0.96978-1.9354-1.6273-3.0511-0.65771-1.1152-1.2524-2.2973-1.323-2.6269-0.0701-0.3296-0.51833-0.7511-0.99571-0.9364-0.85207-0.3306-0.8654-0.3211-0.73584 0.5184 0.1482 0.9604 0.1141 0.8468 1.2716 4.2103 1.3714 3.985 6.9964 11.938 10.633 15.033 1.9478 1.6578 3.275 2.4444 3.1523 1.8678-0.0333-0.1564-0.50742-0.632-1.0536-1.0572-0.57701-0.4493-0.95941-0.9881-0.91239-1.2861 0.0448-0.2821-0.33698-1.4524-0.84759-2.601-2.4092-5.4184-2.7582-6.2412-3.1214-7.3542-0.55793-1.7117-0.98212-2.5967-2.7183-5.6715-1.3086-2.3175-1.7932-2.8943-3.1633-3.7649-0.77861-0.4949-1.4899-0.8247-1.7156-0.8062zm23.548 10.3c-0.50884-0.023-0.54313 0.2303-0.10327 0.7593 1.3499 1.6236 3.779 12.02 3.9664 16.975 0.0402 1.0628 0.20221 2.3181 0.36068 2.7895 0.66378 1.9795 0.23717-12.116-0.46494-15.36-0.45416-2.0981-2.4127-4.9634-3.5115-5.1368-0.0921-0.014-0.17476-0.023-0.24744-0.027zm-0.95133 0.9728c-0.21234-0.014-0.37904 0.3561-0.53277 1.0646-0.22922 1.0564-0.0192 2.4878 1.3509 9.1859 1.1331 5.54 1.8855 8.5673 2.4918 10.031 0.47781 1.1527 1.0992 2.3024 1.3814 2.5547 0.45328 0.4054 0.49913 0.2707 0.3946-1.1563-0.0651-0.8882-0.22179-1.7215-0.34721-1.8532-0.12581-0.1315-0.26884-1.0751-0.31826-2.0968-0.17463-3.6123-1.1447-8.7441-2.4784-13.111-0.9651-3.1601-1.5367-4.5912-1.9421-4.6189zm-23.267 12.507c0.0253-0.01299 0.13189 0.024 0.31827 0.1083 0.38757 0.1746 0.78997 0.3829 0.89448 0.462 0.10441 0.079 0.95469 0.3694 1.8892 0.6449 0.9346 0.2756 2.0985 0.6938 2.5866 0.9295 0.66127 0.3193 0.76178 0.4591 0.39311 0.5412-0.27189 0.062-0.72043-0.066-0.99624-0.2835-0.2757-0.2176-1.1943-0.5811-2.0418-0.8075-0.84737-0.2263-1.9658-0.725-2.4853-1.1079-0.41643-0.3072-0.60033-0.466-0.55823-0.487zm9.7193 9.5927c-0.46373-0.01201-0.88289 0.027-1.307 0.1102-1.1449 0.2277-1.5041 0.4143-1.4327 0.7473 0.26153 1.2279 6.4802 2.9312 11.837 3.2425h-8.5e-4c1.4189 0.082 3.1317 0.1414 3.8063 0.1307l1.2262-0.019-0.869-0.5453c-0.8575-0.5379-5.0946-1.836-10.345-3.1701-1.2458-0.3166-2.142-0.4746-2.9148-0.4939zm-2.2977 0.5317c0.25364 0.02201 0.68119 0.1176 1.2586 0.2894 0.68007 0.2023 3.1084 0.7467 5.3967 1.2101 2.2882 0.4635 5.0732 1.0895 6.1884 1.3909v5.29e-4c1.1152 0.3016 1.9214 0.5736 1.7909 0.6026-0.2336 0.054-3.0992-0.4585-5.7015-1.0196-0.7343-0.1582-2.8021-0.5801-4.595-0.9373-1.7929-0.357-3.6149-0.8365-4.0487-1.0656-0.65201-0.3445-0.7121-0.5085-0.28933-0.471zm4.4079 4.8708c0.9685 0.01 2.859 0.1628 4.8609 0.4106 2.6692 0.3303 6.9131 0.8527 9.431 1.1609 1.7272 0.2114 3.5876 0.484 4.9348 0.7119v1.7195c-0.41521 0.1-0.85021 0.2108-1.319 0.3392-2.0688 0.5666-4.8502 1.1289-6.1809 1.2487-2.4853 0.2238-6.078 0.01601-7.0155-0.4051-0.44188-0.1985-0.43086-0.2277 0.0674-0.1756 4.34 0.4521 9.2577 0.054 11.481-0.9299 1.2795-0.5662 1.2852-0.5742 0.23146-0.3846-1.352 0.2444-9.1274-0.036-11.549-0.4161-2.3086-0.3625-5.1189-1.218-5.3543-1.6297-0.0998-0.1747 1.232 0.068 2.9592 0.5373 4.4821 1.2197 12.723 1.6092 15.616 0.7383 1.008-0.3035 0.75624-0.3792-2.4679-0.7448-1.9745-0.2238-5.2877-0.6402-7.3627-0.9249-4.886-0.6704-8.5661-0.9584-8.9989-0.7043-0.57049 0.3354-0.0982 1.5823 0.89145 2.3525 0.51209 0.3987 1.5727 0.993 2.3571 1.321 0.78446 0.328 1.3784 0.6715 1.319 0.7623-0.22578 0.3481-3.2782-1.174-4.1216-2.0552-1.1139-1.1641-1.312-2.5576-0.41055-2.888 0.0879-0.032 0.30821-0.047 0.63105-0.044zm19.227 7.2042v0.4305c-1.6224 0.2179-3.6521 0.5765-6.2138 1.0985-7.078 1.4411-7.4228 1.918-0.66298 0.9164 2.4989-0.3703 4.7992-0.6915 6.8768-0.9719v0.5279c-4.8813 0.7727-10.858 1.5806-11.598 1.4566-0.65514-0.1097-0.85524-0.076-0.59113 0.097 0.87262 0.5737 7.3474 0.439 12.189-0.1332v0.6476c-5.6684 0.5117-8.7561 0.6356-10.456 0.4164-2.0304-0.2612-2.5224-0.5513-2.6036-1.5309-0.0497-0.5994 0.16077-0.67 4.9836-1.6537 2.7697-0.5655 6.372-1.1484 8.0047-1.2955 0.0227 0 0.0484 0 0.0713-0.01zm0 4.5595v0.4315c-1.0127 0.1269-1.939 0.2331-2.5417 0.2799-2.0208 0.1567-2.8184 0.3219-3.0151 0.6249-0.42756 0.6591 0.1766 1.2344 1.7345 1.652v5.29e-4c1.0229 0.2742 1.8351 0.276 3.8223-0.061v0.466c-1.1719 0.2107-2.1338 0.3191-2.6584 0.2644-2.0639-0.2154-3.2182-0.8407-3.3085-1.7924-0.0732-0.7715 0.0196-0.8439 1.4487-1.1309 0.58286-0.1167 2.338-0.3973 4.5182-0.7354zm0 1.4332v0.5069c-2.2748 0.4495-4.0973 0.7367-4.2857 0.6146-0.1855-0.1199 1.4889-0.5499 4.2857-1.1215z" fill="#1a1a1a" stroke-width=".83802"/>
 </g>
</svg>
