<?xml version="1.0" encoding="UTF-8"?>
<svg width="28.677mm" height="27.102mm" version="1.1" viewBox="0 0 28.677 27.102" xmlns="http://www.w3.org/2000/svg" xmlns:cc="http://creativecommons.org/ns#" xmlns:dc="http://purl.org/dc/elements/1.1/" xmlns:rdf="http://www.w3.org/1999/02/22-rdf-syntax-ns#">
 <metadata>
  <rdf:RDF>
   <cc:Work rdf:about="">
    <dc:format>image/svg+xml</dc:format>
    <dc:type rdf:resource="http://purl.org/dc/dcmitype/StillImage"/>
    <dc:title/>
   </cc:Work>
  </rdf:RDF>
 </metadata>
 <g transform="translate(385.96 -33.786)">
  <path d="m-357.38 47.375c1.0599 8.0205-6.7017 13.888-16.046 13.494-8.2336-0.34722-13.136-6.0051-12.474-13.428 0.67438-7.5681 5.3453-14.145 13.599-13.627 8.2334 0.51674 13.8 5.0742 14.922 13.56z" fill="#1a1a1a"/>
  <text x="-371.93777" y="45.096481" fill="#ffffff" font-family="Subway" font-size="7.5147px" font-weight="bold" letter-spacing="0px" stroke-width=".26458" text-anchor="middle" word-spacing="0px" style="line-height:1.25" xml:space="preserve"><tspan x="-371.93777" y="45.096481" text-align="center">Get</tspan><tspan x="-371.93777" y="54.745651" text-align="center">$5</tspan></text>
 </g>
</svg>
